{
  "export interface": {
    "prefix": ";export-interface",
    "body": ["export interface $1 {", "\t$2", "}"]
  },
  "import statement": {
    "prefix": ";import",
    "body": "import { $2 } from '$1'"
  },
  "log via JSON.parse(JSON.stringify())": {
    "prefix": ";ls",
    "body": "console.log($2JSON.parse(JSON.stringify($1)))"
  },

  "angular on push change detection": {
    "prefix": ";ng-on-push",
    "body": ["changeDetection: ChangeDetectionStrategy$1.OnPush,$0"]
  },

  "generic DI": {
    "prefix": ";di-generic",
    "body": ["private $1: ${1/(.*)/${1:/pascalcase}/}$2, $0"]
  },

  "angular activated route DI": {
    "prefix": ";di-ng-activated-route",
    "body": ["private route: ActivatedRoute$1, $0"]
  },
  "angular http client DI": {
    "prefix": ";di-ng-http",
    "body": ["private http: HttpClient$1, $0"]
  },
  "angular location client DI": {
    "prefix": ";di-ng-location",
    "body": ["private location: Location$1, $0"]
  },
  "angular router DI": {
    "prefix": ";di-ng-router",
    "body": ["private router: Router$1, $0"]
  },
  "angular sanitizer DI": {
    "prefix": ";di-ng-sanitizer",
    "body": ["private sanitizer: DomSanitizer$1, $0"]
  },
  "angular zone DI": {
    "prefix": ";di-ng-zone",
    "body": ["private zone: NgZone$1, $0"]
  },

  "ionic action sheet controller DI": {
    "prefix": ";di-ionic-action-sheet-controller",
    "body": ["private actionSheetController: ActionSheetController$1, $0"]
  },
  "ionic alert controller DI": {
    "prefix": ";di-ionic-alert-controller",
    "body": ["private alertController: AlertController$1, $0"]
  },
  "ionic animation controller DI": {
    "prefix": ";di-ionic-animation-controller",
    "body": ["private animationController: AnimationController$1, $0"]
  },
  "ionic gesture controller DI": {
    "prefix": ";di-ionic-gesture-controller",
    "body": ["private gestureController: GestureController$1, $0"]
  },
  "ionic loading controller DI": {
    "prefix": ";di-ionic-loading-controller",
    "body": ["private loadingController: LoadingController$1, $0"]
  },
  "ionic menu controller DI": {
    "prefix": ";di-ionic-menu-controller",
    "body": ["private menuController: MenuController$1, $0"]
  },
  "ionic modal controller DI": {
    "prefix": ";di-ionic-modal-controller",
    "body": ["private modalController: ModalController$1, $0"]
  },
  "ionic nav controller DI": {
    "prefix": ";di-ionic-nav-controller",
    "body": ["private navController: NavController$1, $0"]
  },
  "ionic picker controller DI": {
    "prefix": ";di-ionic-picker-controller",
    "body": ["private pickerController: PickerController$1, $0"]
  },
  "ionic popover controller DI": {
    "prefix": ";di-ionic-popover-controller",
    "body": ["private popoverController: PopoverController$1, $0"]
  },
  "ionic toast controller DI": {
    "prefix": ";di-ionic-toast-controller",
    "body": ["private toastController: ToastController$1, $0"]
  },
  "ionic platform DI": {
    "prefix": ";di-ionic-platform",
    "body": ["private platform: Platform$1, $0"]
  },

  "auth service DI": {
    "prefix": ";di-auth-service",
    "body": ["private authService: AuthService$1, $0"]
  },
  "api service DI": {
    "prefix": ";di-api-service",
    "body": ["private apiService: ApiService$1, $0"]
  },
  "app launcher service DI": {
    "prefix": ";di-app-launcher-service",
    "body": ["private appLauncherService: AppLauncherService$1, $0"]
  },
  "document service DI": {
    "prefix": ";di-document-service",
    "body": ["private documentService: DocumentService$1, $0"]
  },
  "loading service DI": {
    "prefix": ";di-loading-service",
    "body": ["private loadingService: LoadingService$1, $0"]
  },
  "progress bar service DI": {
    "prefix": ";di-progress-bar-service",
    "body": ["private progressBarService: ProgressBarService$1, $0"]
  },
  "router service DI": {
    "prefix": ";di-router-service",
    "body": ["private routerService: RouterService$1, $0"]
  },
  "status bar service DI": {
    "prefix": ";di-status-bar-service",
    "body": ["private statusBarService: StatusBarService$1, $0"]
  },
  "storage service DI": {
    "prefix": ";di-storage-service",
    "body": ["private storageService: StorageService$1, $0"]
  },

  "just placed as the last item to conserve the last snippets' tailing comma": {
    "prefix": "ɵ",
    "body": ""
  }
}
